<svg width="42" height="43" viewBox="0 0 42 43" fill="none" xmlns="http://www.w3.org/2000/svg">
<path d="M29.5342 14.8694H23.713V10.965C23.713 9.4987 24.6664 9.1547 25.3342 9.1547H29.4334V2.709L23.7802 2.6875C17.5096 2.6875 16.0858 7.4949 16.0858 10.5737V14.8694H12.457V21.5086H16.0858V40.3082H23.7172V21.5129H28.8664L29.5342 14.8694Z" fill="#18A7B5"/>
</svg>
