<svg width="201" height="51" viewBox="0 0 201 51" fill="none" xmlns="http://www.w3.org/2000/svg">
<path d="M0 0.93457H45.56V26.7567C45.56 32.9605 43.1579 38.9102 38.8822 43.2969C34.6065 47.6836 28.8074 50.148 22.7606 50.148C16.7205 50.1375 10.9314 47.6684 6.66406 43.2828C2.39673 38.8972 -8.76464e-06 32.9536 0 26.7567L0 0.93457Z" fill="#E84250"/>
<path d="M30.0626 23.1308L22.7605 15.6791L15.4973 23.1308L6.48633 13.8858L9.94314 10.3393L15.4973 16.0775L22.7605 8.58594L30.0626 16.0775L35.6168 10.3393L39.0736 13.8858L30.0626 23.1308Z" fill="white"/>
<path d="M30.0626 37.4365L22.7605 29.9847L15.4973 37.4365L6.48633 28.1915L9.94314 24.645L15.4973 30.3832L22.7605 22.8916L30.0626 30.3832L35.6168 24.645L39.0736 28.1915L30.0626 37.4365Z" fill="white"/>
<path d="M58.5332 14.0054V32.8539H62.9999V25.6413H70.1077V21.8158H62.9999V18.0301H71.1952V14.0054H58.5332ZM85.3332 32.8539H89.528V18.5482H85.3332V32.8539ZM87.4306 11.2957C86.7598 11.2621 86.0991 11.4739 85.5662 11.8934C85.3526 12.0961 85.1833 12.343 85.0695 12.6177C84.9557 12.8925 84.9 13.1889 84.906 13.4873C84.8913 13.7987 84.9427 14.1097 85.0567 14.3987C85.1707 14.6876 85.3446 14.9478 85.5662 15.161C86.1086 15.5574 86.7656 15.754 87.4306 15.7189C88.0896 15.7535 88.7385 15.5411 89.2561 15.1212C89.4708 14.9108 89.6403 14.6569 89.754 14.3756C89.8677 14.0943 89.923 13.7918 89.9164 13.4873C89.9307 13.1819 89.8788 12.877 89.7647 12.5945C89.6505 12.3121 89.4768 12.059 89.2561 11.8535C88.7364 11.4411 88.0856 11.2422 87.4306 11.2957ZM103.588 19.2256C102.392 18.5962 101.068 18.268 99.7236 18.268C98.3796 18.268 97.0549 18.5962 95.859 19.2256C94.1838 20.2329 92.963 21.877 92.4614 23.8015C91.9597 25.726 92.2175 27.7759 93.179 29.5066C93.8384 30.6144 94.7604 31.5328 95.859 32.1765C97.0549 32.8059 98.3796 33.1341 99.7236 33.1341C101.068 33.1341 102.392 32.8059 103.588 32.1765C104.687 31.5328 105.609 30.6144 106.268 29.5066C106.933 28.3491 107.269 27.0242 107.239 25.6811C107.276 24.3633 106.953 23.0612 106.308 21.9209C105.663 20.7806 104.721 19.8472 103.588 19.2256ZM102.578 27.5939C102.308 28.1287 101.906 28.5819 101.413 28.9089C100.923 29.2574 100.339 29.4387 99.7431 29.4269C99.1343 29.4444 98.5359 29.263 98.0341 28.9089C97.532 28.5927 97.1279 28.1367 96.8689 27.5939C96.5767 27.0028 96.4427 26.3427 96.4804 25.6811C96.4427 25.0195 96.5767 24.3595 96.8689 23.7684C97.1367 23.2211 97.5382 22.7544 98.0341 22.4135C98.5473 22.0895 99.1405 21.9235 99.7431 21.9353C100.333 21.9289 100.912 22.0948 101.413 22.4135C101.9 22.7655 102.299 23.2295 102.578 23.7684C102.835 24.3717 102.968 25.0229 102.968 25.6811C102.968 26.3394 102.835 26.9906 102.578 27.5939ZM115.124 14.9219H110.929V18.5482H108.482V22.3338H110.929V32.8539H115.124V22.3338H117.843V18.5482H115.124V14.9219ZM167.17 22.4534C167.708 22.1599 168.309 22.0093 168.918 22.015C169.354 21.9998 169.788 22.0674 170.2 22.2143C170.586 22.3653 170.951 22.5661 171.287 22.812C171.607 23.0356 171.895 23.3038 172.142 23.609L174.434 20.8196C173.785 19.9761 172.926 19.3288 171.948 18.9467C170.87 18.4699 169.703 18.2388 168.53 18.2692C167.263 18.2445 166.014 18.5752 164.918 19.2256C163.847 19.853 162.972 20.7787 162.393 21.8955C161.763 23.0513 161.442 24.3571 161.461 25.6811C161.437 27.0184 161.758 28.3383 162.393 29.5066C162.994 30.6066 163.864 31.5269 164.918 32.1765C166.014 32.827 167.263 33.1577 168.53 33.1329C169.701 33.1312 170.86 32.9013 171.948 32.4555C172.911 32.0637 173.765 31.4341 174.434 30.6224L172.142 27.7931C171.884 28.1251 171.583 28.4199 171.249 28.6698C170.932 28.9056 170.577 29.081 170.2 29.1878C169.782 29.3044 169.351 29.3581 168.918 29.3472C168.316 29.3547 167.724 29.189 167.209 28.8691C166.695 28.5553 166.278 28.0996 166.005 27.554C165.704 26.9792 165.557 26.3331 165.578 25.6811C165.554 25.0161 165.701 24.3564 166.005 23.7684C166.264 23.2256 166.668 22.7695 167.17 22.4534ZM198.32 18.5482V14.9219H194.126V18.5482H191.64V22.3338H194.126V32.8539H198.32V22.3338H201V18.5482H198.32ZM81.721 18.2692C80.9908 18.2602 80.2699 18.4382 79.6236 18.7873C78.9728 19.1538 78.4038 19.656 77.9535 20.2617L77.6039 20.7399L77.5263 18.5482H73.5257V32.8539H77.7593V25.6811C77.741 25.286 77.8073 24.8916 77.9535 24.5255C78.0742 24.1981 78.2593 23.8997 78.4973 23.6488C78.7282 23.3965 79.0053 23.1933 79.3129 23.0511C79.6623 22.9239 80.0297 22.8566 80.4005 22.8519C80.7405 22.8499 81.0796 22.8901 81.4103 22.9714C81.6827 23.0393 81.9442 23.1466 82.1871 23.2902L83.3523 18.5083L82.5755 18.3489C82.2958 18.2809 82.0081 18.2541 81.721 18.2692ZM140.681 14.0054L136.603 20.5406L132.175 14.0054H127.126L134.35 24.5255V32.8539H138.856V24.4458L145.575 14.0054H140.681ZM154.664 20.3015H154.625C154.392 19.9494 154.103 19.6396 153.77 19.385C153.342 19.0225 152.856 18.7393 152.333 18.5482C151.744 18.3499 151.127 18.2556 150.508 18.2692C149.364 18.2495 148.241 18.5827 147.284 19.2256C146.311 19.8726 145.532 20.7828 145.031 21.8556C144.471 23.0477 144.192 24.358 144.216 25.6811C144.192 27.0042 144.471 28.3146 145.031 29.5066C145.529 30.569 146.293 31.4766 147.245 32.1367C148.159 32.7795 149.245 33.1138 150.352 33.093C150.959 33.1069 151.564 33.0125 152.139 32.8141C152.698 32.6239 153.223 32.3413 153.693 31.9773C154.004 31.743 154.29 31.4759 154.547 31.1803V32.8539H158.781V18.5482H154.664V20.3015ZM154.314 27.7134C154.079 28.2497 153.685 28.696 153.188 28.9886C152.691 29.3182 152.109 29.485 151.518 29.4668C150.948 29.475 150.388 29.3137 149.905 29.0026C149.423 28.6915 149.039 28.2437 148.799 27.7134C148.521 27.0749 148.388 26.38 148.41 25.6811C148.389 24.9952 148.522 24.3134 148.799 23.6887C149.041 23.1594 149.417 22.7056 149.886 22.3737C150.371 22.0495 150.939 21.8828 151.518 21.8955C152.109 21.8772 152.691 22.044 153.188 22.3737C153.678 22.6922 154.069 23.1487 154.314 23.6887C154.591 24.3134 154.724 24.9952 154.702 25.6811C154.724 26.38 154.592 27.0749 154.314 27.7134ZM187.562 18.9068C186.755 18.4491 185.841 18.2285 184.92 18.2692C184.158 18.2664 183.403 18.4294 182.707 18.7474C182.039 19.0552 181.433 19.4876 180.92 20.0226L180.726 20.2617V12.9295H176.57V32.8539H180.803V24.2864C180.793 23.9563 180.859 23.6284 180.998 23.33C181.13 23.0443 181.314 22.7872 181.541 22.5729C181.771 22.3379 182.05 22.1606 182.357 22.0549C182.681 21.9377 183.023 21.8836 183.367 21.8955C183.782 21.8672 184.196 21.9496 184.571 22.1346C184.892 22.3394 185.138 22.6477 185.27 23.0113C185.439 23.4551 185.519 23.9296 185.503 24.406V32.8539H189.737V24.0872C189.764 22.998 189.58 21.9141 189.193 20.8993C188.884 20.0649 188.309 19.3626 187.562 18.9068Z" fill="#072C3E"/>
</svg>
